[
    {
        "name": "Рюкзак ROLLTOP 2",
        "price": 1595,
        "image": "https://harvest-clothing.com.ua/image/cache/webp/catalog/0Products_all/040049001300080000/DSC-2383-1000x1250.webp",
        "article": 123456 ,
        "color": "Сірий"
    } ,
    {
        "name": "Рюкзак CHROME ",
        "price": 2000,
        "image": "https://harvest-clothing.com.ua/image/cache/webp/catalog/0NEW_PRODUCTS/040230000400110000/IMG-5542-1000x1250.webp",
        "article": "A1S2D3",
        "color": "Білий"
    },
     {
        "name": "Рюкзак AUDREY",
        "price": 1895,
        "image": "https://harvest-clothing.com.ua/image/cache/webp/catalog/0NEW_PRODUCTS/040568000000000074/IMG-1986-1000x1250.webp",
        "article": "AS5D6",
        "color": "Принт Autum"
    } ,
     {
        "name": "Рюкзак CHROME глянець",
        "price": 2395,
        "image": "https://harvest-clothing.com.ua/image/cache/webp/catalog/0NEW_PRODUCTS/040230001000510000/2-1000x1250.webp",
        "article": "S1F2G3",
        "color": "Чорний"
    } ,
     {
        "name": "Рюкзак SHUTTLE ROLL MINI",
        "price": 1395,
        "image": "https://harvest-clothing.com.ua/image/cache/webp/catalog/0NEW_PRODUCTS/040187001305860000/NK2-6034s-1000x1250.webp",
        "article": "w1e2D3",
        "color": "Фіолет"
    } ,
     {
        "name": "Рюкзак SHUTTLE ROLL",
        "price": 1795,
        "image": "https://harvest-clothing.com.ua/image/cache/webp/catalog/0_SHUTTLE/040186000400110000/NZ6-5100-1000x1250.webp",
        "article": "11S35D3",
        "color":"Білий" 
    } ,
     {
        "name": "Рюкзак SOLVER MINI",
        "price": 1695,
        "image": "https://harvest-clothing.com.ua/image/cache/webp/catalog/0NEW_PRODUCTS/040079000400100000/DSC-2165-1000x1250.webp",
        "article": "A1B2M3",
        "color": "Темний беж"
    } ,
     {
        "name": "Рюкзак SOLVER MINI",
        "price": 1441,
        "image": "https://harvest-clothing.com.ua/image/cache/webp/catalog/0Products_all/040079000000000006/IMG-9068-1000x1250.webp",
        "article": "3H5P2D3",
        "color": "Принт орнамент квіти" 
    } ,
     {
        "name": "Рюкзак TRUFFLE",
        "price": 1895,
        "image": "https://harvest-clothing.com.ua/image/cache/webp/catalog/0Products_all/040419001305860000/040419001305860000/IMG-0527-1000x1250.webp",
        "article": "25L2D3",
        "color": "Фіолет"
    } ,
     {
        "name": "Рюкзак WIDE LIGHT",
        "price": 2195,
        "image": "https://harvest-clothing.com.ua/image/cache/webp/catalog/0NEW_PRODUCTS/040498000000000077/IMG-0093-1000x1250.webp",
        "article": "A1JHD3",
        "color": "Принт сплеш"
    } ,
     {
        "name": "Рюкзак MINI",
        "price": 1450,
        "image": "https://harvest-clothing.com.ua/image/cache/webp/catalog/0Products_all/040032001300910000/DSC-2454-1000x1250.webp",
        "article": "AJ2L53",
        "color": "Блакитний"
    } 

]